[{
    "id": 1,
    "fecha": "7/10/2019",
    "importe": 4,
    "latitude": 28.998299,
    "longitude": 110.464464,
    "ciudad": "Baishuitan"
  }, {
    "id": 2,
    "fecha": "1/13/2020",
    "importe": 37,
    "latitude": 57.9910574,
    "longitude": 11.5482426,
    "ciudad": "Skärhamn"
  }, {
    "id": 3,
    "fecha": "5/10/2020",
    "importe": 87,
    "latitude": 40.2166885,
    "longitude": 141.3014573,
    "ciudad": "Ichinohe"
  }, {
    "id": 4,
    "fecha": "1/26/2020",
    "importe": 28,
    "latitude": -37.8060734,
    "longitude": -72.7038047,
    "ciudad": "Angol"
  }, {
    "id": 5,
    "fecha": "10/16/2019",
    "importe": 13,
    "latitude": -7.6378396,
    "longitude": 107.728092,
    "ciudad": "Pameungpeuk"
  }, {
    "id": 6,
    "fecha": "9/2/2019",
    "importe": 31,
    "latitude": 40.0856412,
    "longitude": -8.2896115,
    "ciudad": "Espinho"
  }, {
    "id": 7,
    "fecha": "2/18/2020",
    "importe": 80,
    "latitude": 51.9210929,
    "longitude": 15.4768834,
    "ciudad": "Zielona Góra"
  }, {
    "id": 8,
    "fecha": "7/15/2019",
    "importe": 25,
    "latitude": -6.6664588,
    "longitude": 111.1682495,
    "ciudad": "Growong Kidul"
  }, {
    "id": 9,
    "fecha": "1/4/2020",
    "importe": 30,
    "latitude": 38.0135829,
    "longitude": 23.8218079,
    "ciudad": "Agía Paraskeví"
  }, {
    "id": 10,
    "fecha": "11/5/2019",
    "importe": 89,
    "latitude": -7.1765167,
    "longitude": -47.2923893,
    "ciudad": "Carolina"
  }]